ccopy_reg
_reconstructor
p0
(cnetworkx.classes.graph
Graph
p1
c__builtin__
object
p2
Ntp3
Rp4
(dp5
S'node'
p6
(dp7
I0
(dp8
sI1
(dp9
sI2
(dp10
sI3
(dp11
ssS'node_dict_factory'
p12
c__builtin__
dict
p13
sS'edge_attr_dict_factory'
p14
g13
sS'edge'
p15
(dp16
I0
(dp17
I1
(dp18
sI2
(dp19
sI3
(dp20
ssI1
(dp21
I0
g18
sI2
(dp22
sI3
(dp23
ssI2
(dp24
I0
g19
sI1
g22
sI3
(dp25
ssI3
(dp26
I0
g20
sI1
g23
sI2
g25
sssS'graph'
p27
(dp28
S'name'
p29
S'complete_graph(4)'
p30
ssS'adjlist_dict_factory'
p31
g13
sS'adj'
p32
g16
sb.